{
	"root": {
		"dev": "./src",
		"dist": "./public_html"
	},
	"pages": {
		"dev": "./src/pages/**/*.{html,hbs,handlebars}",
		"dist":  "./public_html",
		"watch": [
			"./src/layouts/**/*",
			"./src/partials/**/*"
		],
		"panini": {
			"root": "./src/pages/",
			"partials": "./src/partials/",
			"layouts": "./src/layouts/",
			"data": "./src/data/",
			"helpers": "./src/helpers/"
		}
	},
	"styles": {
		"dev": "./src/scss/*.scss",
		"dist": "./public_html/assets/css",
		"watch": "./src/assets/scss/**/*.scss",
		"pathIncludes": [
			"./node_modules/foundation-sites/scss",
			"./node_modules/motion-ui/src",
			"./node_modules/bootstrap/scss"
		]
	},
	"js": {
		"dev": "./src/js/*.{js,json}",
		"dist": "./public_html/js",
		"babelIncludes": [
			"./src/js",
			"./node_modules/foundation-sites"
		],
		"publicPath": "/js/"
	},
	"images": {
		"dev": "./src/assets/img/**/*.{jpg,jpeg,gif,png,svg}",
		"dist": "./public_html/assets/img"
	},
	"assets": {
		"dev": [
			"./src/assets/**/*",
			"!./src/assets/{img, fonts}/**/*"
		],
		"dist": "./public_html/assets"
	},
	"svg": {
		"dev": "./src/assets/img/svg/**/*.svg",
		"dist": "./public_html/assets/img"
	},
	"fonts": {
		"dev": "./src/assets/fonts/*.{woff2,woff,eot,ttf,svg}",
		"dist": "./public_html/assets/fonts"
	},
	"deploy": {
		"dev": {
			"host": "p440907.ftp.ihc.ru",
			"user": "p440907_gulp",
			"path": "/dev.frontzavod.ru/",
			"password": "13579801+"
		},
		"prod": {
			"host": "p440907.ftp.ihc.ru",
			"user": "p440907_gulp",
			"path": "/frontzavod.ru/",
			"password": "13579801+"
		}
	},
	"browserSync": {
		"port": 3333,
		"proxy": {
			"target": "",
			"publicPath" : "",
			"files": [
				"../*.php"
			]
		}
	}
}
